…
``` r
homicides %>%
  mutate(
    city_state = str_c(city,state,sep= ", ")
  ) %>%
  group_by(city_state) %>%
  summarize(
    solved_cases = sum(disposition == "Closed by arrest"),
    unsolved_cases = sum(disposition != "Closed by arrest")
  )
```

    ## # A tibble: 51 × 3
    ##    city_state      solved_cases unsolved_cases
    ##    <chr>                  <int>          <int>
    ##  1 Albuquerque, NM          232            146
    ##  2 Atlanta, GA              600            373
    ##  3 Baltimore, MD           1002           1825
    ##  4 Baton Rouge, LA          228            196
    ##  5 Birmingham, AL           453            347
    ##  6 Boston, MA               304            310
    ##  7 Buffalo, NY              202            319
    ##  8 Charlotte, NC            481            206
    ##  9 Chicago, IL             1462           4073
    ## 10 Cincinnati, OH           385            309
    ## # … with 41 more rows
…
